[
    {
        "global_parameters": {
            "c": 1e-05,
            "coinfection": 1,
            "crop_time": 180,
            "crops": 25,
            "dpi": 7,
            "epsilon_alpha": 0.01,
            "epsilon_beta": 0.01,
            "k_alpha": 0.1,
            "k_beta": 1.25,
            "pathotypes": [
                "P0",
                "P12",
                "P123"
            ],
            "size_x": 100,
            "size_y": 100
        },
        "interspecific_parameters": {
            "C": {
                "P0": {
                    "P0": 1.0,
                    "P12": 0.0,
                    "P123": 0.0
                },
                "P12": {
                    "P0": -0.409,
                    "P12": 0.489,
                    "P123": -0.275
                },
                "P123": {
                    "P0": -0.251,
                    "P12": -0.155,
                    "P123": 0.253
                }
            },
            "genotype_probability": [
                1.0,
                0.0
            ]
        },
        "metaparameters": {
            "map": false,
            "mortality": "lognormal_model",
            "outfile": "het.nocoinf",
            "overlap": false,
            "placement": "regular_model",
            "seeds": [
                0,
                1,
                2,
                3,
                4,
                5,
                6,
                7,
                8,
                9,
                10,
                11,
                12,
                13,
                14,
                15,
                16,
                17,
                18,
                19,
                20,
                21,
                22,
                23,
                24,
                25,
                26,
                27,
                28,
                29,
                30,
                31,
                32,
                33,
                34,
                35,
                36,
                37,
                38,
                39,
                40,
                41,
                42,
                43,
                44,
                45,
                46,
                47,
                48,
                49,
                50,
                51,
                52,
                53,
                54,
                55,
                56,
                57,
                58,
                59,
                60,
                61,
                62,
                63,
                64,
                65,
                66,
                67,
                68,
                69,
                70,
                71,
                72,
                73,
                74,
                75,
                76,
                77,
                78,
                79,
                80,
                81,
                82,
                83,
                84,
                85,
                86,
                87,
                88,
                89,
                90,
                91,
                92,
                93,
                94,
                95,
                96,
                97,
                98,
                99,
                100,
                101,
                102,
                103,
                104,
                105,
                106,
                107,
                108,
                109,
                110,
                111,
                112,
                113,
                114,
                115,
                116,
                117,
                118,
                119,
                120,
                121,
                122,
                123,
                124,
                125,
                126,
                127,
                128,
                129,
                130,
                131,
                132,
                133,
                134,
                135,
                136,
                137,
                138,
                139,
                140,
                141,
                142,
                143,
                144,
                145,
                146,
                147,
                148,
                149,
                150,
                151,
                152,
                153,
                154,
                155,
                156,
                157,
                158,
                159,
                160,
                161,
                162,
                163,
                164,
                165,
                166,
                167,
                168,
                169,
                170,
                171,
                172,
                173,
                174,
                175,
                176,
                177,
                178,
                179,
                180,
                181,
                182,
                183,
                184,
                185,
                186,
                187,
                188,
                189,
                190,
                191,
                192,
                193,
                194,
                195,
                196,
                197,
                198,
                199
            ],
            "simulations": 200,
            "verbose": false
        },
        "specific_parameters": {
            "k_omega": {
                "P0": 0.906,
                "P12": 0.92,
                "P123": 0.917
            },
            "mu": {
                "P0": 3.46,
                "P12": 4.19,
                "P123": 3.74
            },
            "omega": {
                "P0": 30000000000000.0,
                "P12": 2400000000000.0,
                "P123": 1900000000000.0
            },
            "sigma": {
                "P0": 0.32,
                "P12": 0.32,
                "P123": 0.32
            }
        }
    }
]